…
library(dplyr, warn.conflicts = FALSE)

target <- data.frame(sex = c("Female", "Male"), 
                     e0 = c(17.5, 15.6))

standard <- west_lifetab |>
    filter(level == 1) |>
    select(sex, age, lx)
    
e0_to_lifetab_logit(target = target,
                    standard = standard,
                    infant = "CD",
                    child = "CD")
#> # A tibble: 42 × 7
#>    sex    age       qx      lx     dx      Lx    ex
#>    <chr>  <fct>  <dbl>   <dbl>  <dbl>   <dbl> <dbl>
#>  1 Female 0     0.412  100000  41204.  73218.  17.5
#>  2 Female 1-4   0.286   58796. 16790. 190877.  28.5
#>  3 Female 5-9   0.0793  42006.  3331. 201590.  35.4
#>  4 Female 10-14 0.0617  38675.  2387. 187346.  33.2
#>  5 Female 15-19 0.0793  36288.  2879. 174145.  30.2
#>  6 Female 20-24 0.0979  33409.  3270. 158729.  27.6
#>  7 Female 25-29 0.109   30139.  3273. 142356.  25.4
#>  8 Female 30-34 0.122   26866.  3264. 125994.  23.1
#>  9 Female 35-39 0.131   23602.  3103. 110070.  21.0
#> 10 Female 40-44 0.138   20499.  2838.  95223.  18.8
#> # ℹ 32 more rows

## target is an rvec
library(rvec, warn.conflicts = FALSE)
target_rvec <- data.frame(sex = c("Female", "Male"), 
                          e0 = rnorm_rvec(n = 2,
                                          mean = c(17.5, 15.6),
                                          n_draw = 1000))
e0_to_lifetab_logit(target = target_rvec,
                    standard = standard)
#> # A tibble: 42 × 7
#>    sex    age                     qx                   lx                   dx
#>    <chr>  <fct>         <rdbl<1000>>         <rdbl<1000>>         <rdbl<1000>>
#>  1 Female 0        0.42 (0.38, 0.46) 1e+05 (1e+05, 1e+05) 41526 (37788, 45580)
#>  2 Female 1-4      0.29 (0.27, 0.31) 58474 (54420, 62212) 16777 (16660, 16791)
#>  3 Female 5-9    0.08 (0.075, 0.085) 41683 (37735, 45524)    3322 (3194, 3408)
#>  4 Female 10-14 0.062 (0.058, 0.066) 38360 (34541, 42117)    2379 (2266, 2462)
#>  5 Female 15-19  0.08 (0.075, 0.084) 35981 (32275, 39655)    2868 (2709, 2993)
#>  6 Female 20-24   0.098 (0.094, 0.1) 33114 (29567, 36662)    3254 (3044, 3430)
#>  7 Female 25-29     0.11 (0.1, 0.11) 29859 (26523, 33232)    3254 (3012, 3465)
#>  8 Female 30-34    0.12 (0.12, 0.13) 26606 (23510, 29767)    3243 (2971, 3490)
#>  9 Female 35-39    0.13 (0.13, 0.14) 23363 (20539, 26277)    3080 (2794, 3349)
#> 10 Female 40-44    0.14 (0.13, 0.14) 20283 (17746, 22928)    2815 (2530, 3091)
#> # ℹ 32 more rows
#> # ℹ 2 more variables: Lx <rdbl<1000>>, ex <rdbl<1000>>
```
