Derive Life Tables that Match Life Expectancies, using a Brass Logit Model — ex_to_lifetab_brass • poputils
…
library(dplyr, warn.conflicts = FALSE)

target <- data.frame(sex = c("Female", "Male"), 
                     ex = c(17.5, 15.6))

standard <- west_lifetab |>
    filter(level == 1) |>
    select(sex, age, lx)
    
ex_to_lifetab_brass(target = target,
                    standard = standard,
                    infant = "CD",
                    child = "CD")
#> # A tibble: 42 × 7
#>    sex    age       qx      lx     dx      Lx    ex
#>    <chr>  <fct>  <dbl>   <dbl>  <dbl>   <dbl> <dbl>
#>  1 Female 0     0.412  100000  41204.  73218.  17.5
#>  2 Female 1-4   0.286   58796. 16790. 190877.  28.5
#>  3 Female 5-9   0.0793  42006.  3331. 201590.  35.4
#>  4 Female 10-14 0.0617  38675.  2387. 187346.  33.2
#>  5 Female 15-19 0.0793  36288.  2879. 174145.  30.2
#>  6 Female 20-24 0.0979  33409.  3270. 158729.  27.6
#>  7 Female 25-29 0.109   30139.  3273. 142356.  25.4
#>  8 Female 30-34 0.122   26866.  3264. 125994.  23.1
#>  9 Female 35-39 0.131   23602.  3103. 110070.  21.0
#> 10 Female 40-44 0.138   20499.  2838.  95223.  18.8
#> # ℹ 32 more rows
…
