Calculate Life Tables or Life Expectancies — lifetab • poputils
…
    filter(sex == "Female",
           level == 1) |>
    lifetab(mx = mx)
#> New names:
#> • `qx` -> `qx...5`
#> • `lx` -> `lx...6`
#> • `dx` -> `dx...7`
#> • `Lx` -> `Lx...8`
#> • `ex` -> `ex...9`
#> • `qx` -> `qx...10`
#> • `lx` -> `lx...11`
#> • `dx` -> `dx...12`
#> • `Lx` -> `Lx...13`
#> • `ex` -> `ex...14`
#> # A tibble: 21 × 14
#>    level sex    age      ax qx...5 lx...6 dx...7 Lx...8 ex...9 qx...10 lx...11
#>    <int> <chr>  <fct> <dbl>  <dbl>  <dbl>  <dbl>  <dbl>  <dbl>   <dbl>   <dbl>
#>  1     1 Female 0      0.35 0.366   1     0.366   0.762   20.0  0.381  100000 
#>  2     1 Female 1-4    1.36 0.262   0.634 0.166   2.10    30.3  0.271   61910.
#>  3     1 Female 5-9    2.25 0.0732  0.468 0.0343  2.25    36.6  0.0734  45117.
#>  4     1 Female 10-14  2.6  0.0572  0.434 0.0248  2.11    34.3  0.0571  41805.
#>  5     1 Female 15-19  2.6  0.0740  0.409 0.0303  1.97    31.2  0.0739  39416.
#>  6     1 Female 20-24  2.6  0.0919  0.379 0.0348  1.81    28.5  0.0917  36505.
#>  7     1 Female 25-29  2.6  0.103   0.344 0.0353  1.64    26.1  0.102   33159.
#>  8     1 Female 30-34  2.6  0.116   0.309 0.0357  1.46    23.8  0.115   29766.
#>  9     1 Female 35-39  2.6  0.126   0.273 0.0344  1.28    21.6  0.125   26337.
#> 10     1 Female 40-44  2.6  0.133   0.239 0.0318  1.12    19.3  0.133   23034.
#> # ℹ 11 more rows
#> # ℹ 3 more variables: dx...12 <dbl>, Lx...13 <dbl>, ex...14 <dbl>
…
            sex = sex,
            infant = "CD",
            child = "CD")
#> New names:
#> • `qx` -> `qx...5`
#> • `lx` -> `lx...6`
#> • `dx` -> `dx...7`
#> • `Lx` -> `Lx...8`
#> • `ex` -> `ex...9`
#> • `qx` -> `qx...10`
#> • `lx` -> `lx...11`
#> • `dx` -> `dx...12`
#> • `Lx` -> `Lx...13`
#> • `ex` -> `ex...14`
#> # A tibble: 21 × 14
#>    level sex    age      ax qx...5 lx...6 dx...7 Lx...8 ex...9 qx...10 lx...11
#>    <int> <chr>  <fct> <dbl>  <dbl>  <dbl>  <dbl>  <dbl>  <dbl>   <dbl>   <dbl>
#>  1     1 Female 0      0.35 0.366   1     0.366   0.762   20.0  0.366  100000 
#>  2     1 Female 1-4    1.36 0.262   0.634 0.166   2.10    30.3  0.262   63445.
#>  3     1 Female 5-9    2.25 0.0732  0.468 0.0343  2.25    36.6  0.0734  46836.
#>  4     1 Female 10-14  2.6  0.0572  0.434 0.0248  2.11    34.3  0.0571  43398.
#>  5     1 Female 15-19  2.6  0.0740  0.409 0.0303  1.97    31.2  0.0739  40918.
#>  6     1 Female 20-24  2.6  0.0919  0.379 0.0348  1.81    28.5  0.0917  37896.
#>  7     1 Female 25-29  2.6  0.103   0.344 0.0353  1.64    26.1  0.102   34422.
#>  8     1 Female 30-34  2.6  0.116   0.309 0.0357  1.46    23.8  0.115   30900.
#>  9     1 Female 35-39  2.6  0.126   0.273 0.0344  1.28    21.6  0.125   27340.
#> 10     1 Female 40-44  2.6  0.133   0.239 0.0318  1.12    19.3  0.133   23912.
#> # ℹ 11 more rows
#> # ℹ 3 more variables: dx...12 <dbl>, Lx...13 <dbl>, ex...14 <dbl>

## calculate life expectancies
## for all levels, using the 'by'
## argument to distinguish levels
west_lifetab |>
    lifeexp(mx = mx,
            sex = sex,
            infant = "CD",
            child = "CD",
            by = level)
#> # A tibble: 50 × 3
#>    level sex       ex
#>    <int> <chr>  <dbl>
#>  1     1 Female  20.0
#>  2     1 Male    18.0
#>  3     2 Female  22.5
#>  4     2 Male    20.4
#>  5     3 Female  25.0
#>  6     3 Male    22.8
#>  7     4 Female  27.5
#>  8     4 Male    25.2
#>  9     5 Female  30.0
#> 10     5 Male    27.6
#> # ℹ 40 more rows

## obtain the same result using
## 'group_by'
west_lifetab |>
  group_by(level) |>
  lifeexp(mx = mx,
          sex = sex,
          infant = "CD",
          child = "CD")
#> # A tibble: 50 × 3
#>    level sex       ex
#>    <int> <chr>  <dbl>
#>  1     1 Female  20.0
#>  2     1 Male    18.0
#>  3     2 Female  22.5
#>  4     2 Male    20.4
#>  5     3 Female  25.0
#>  6     3 Male    22.8
#>  7     4 Female  27.5
#>  8     4 Male    25.2
#>  9     5 Female  30.0
#> 10     5 Male    27.6
#> # ℹ 40 more rows

## calculations based on 'qx'
west_lifetab |>
  lifeexp(qx = qx,
          sex = sex,
          by = level)
#> # A tibble: 50 × 3
#>    level sex       ex
#>    <int> <chr>  <dbl>
#>  1     1 Female  20.1
#>  2     1 Male    18.1
#>  3     2 Female  22.5
#>  4     2 Male    20.5
#>  5     3 Female  25.0
#>  6     3 Male    22.9
#>  7     4 Female  27.5
#>  8     4 Male    25.3
#>  9     5 Female  30.0
#> 10     5 Male    27.7
#> # ℹ 40 more rows
…
