…
``` r
library(dplyr)

## life table for females based on 'level 1'
## mortality rates "West" model life table
west_lifetab |>
    filter(sex == "Female",
           level == 1) |>
    lifetab(mx = mx)
#> ℹ Overwriting existing columns `lx`, `dx`, `Lx`, and `ex` in `data`.
#> New names:
#> • `qx` -> `qx...5`
#> • `qx` -> `qx...6`
#> # A tibble: 21 × 10
#>    level sex    age      ax qx...5 qx...6      lx     dx      Lx    ex
#>    <int> <chr>  <fct> <dbl>  <dbl>  <dbl>   <dbl>  <dbl>   <dbl> <dbl>
#>  1     1 Female 0      0.35 0.366  0.381  100000  38090.  79439.  19.4
#>  2     1 Female 1-4    1.36 0.262  0.271   61910. 16793. 212286.  30.0
#>  3     1 Female 5-9    2.25 0.0732 0.0734  45117.  3312. 217198.  36.5
#>  4     1 Female 10-14  2.6  0.0572 0.0571  41805.  2389. 202992.  34.2
#>  5     1 Female 15-19  2.6  0.0740 0.0739  39416.  2911. 189708.  31.1
#>  6     1 Female 20-24  2.6  0.0919 0.0917  36505.  3346. 174024.  28.4
#>  7     1 Female 25-29  2.6  0.103  0.102   33159.  3393. 157159.  26.1
#>  8     1 Female 30-34  2.6  0.116  0.115   29766.  3429. 140082.  23.7
#>  9     1 Female 35-39  2.6  0.126  0.125   26337.  3302. 123243.  21.5
#> 10     1 Female 40-44  2.6  0.133  0.133   23034.  3059. 107343.  19.2
#> # ℹ 11 more rows

## change method for infant and children from
## default ("constant") to "CD"
west_lifetab |>
    filter(sex == "Female",
           level == 1) |>
    lifetab(mx = mx,
            sex = sex,
            infant = "CD",
            child = "CD")
#> ℹ Overwriting existing columns `lx`, `dx`, `Lx`, and `ex` in `data`.
#> New names:
#> • `qx` -> `qx...5`
#> • `qx` -> `qx...6`
#> # A tibble: 21 × 10
#>    level sex    age      ax qx...5 qx...6      lx     dx      Lx    ex
#>    <int> <chr>  <fct> <dbl>  <dbl>  <dbl>   <dbl>  <dbl>   <dbl> <dbl>
#>  1     1 Female 0      0.35 0.366  0.366  100000  36555.  76239.  20.0
#>  2     1 Female 1-4    1.36 0.262  0.262   63445. 16608. 209949.  30.3
#>  3     1 Female 5-9    2.25 0.0732 0.0734  46836.  3438. 225475.  36.5
#>  4     1 Female 10-14  2.6  0.0572 0.0571  43398.  2480. 210728.  34.2
#>  5     1 Female 15-19  2.6  0.0740 0.0739  40918.  3022. 196937.  31.1
#>  6     1 Female 20-24  2.6  0.0919 0.0917  37896.  3474. 180656.  28.4
#>  7     1 Female 25-29  2.6  0.103  0.102   34422.  3522. 163148.  26.1
#>  8     1 Female 30-34  2.6  0.116  0.115   30900.  3560. 145420.  23.7
#>  9     1 Female 35-39  2.6  0.126  0.125   27340.  3428. 127940.  21.5
#> 10     1 Female 40-44  2.6  0.133  0.133   23912.  3176. 111433.  19.2
#> # ℹ 11 more rows

## calculate life expectancies
## for all levels, using the 'by'
## argument to distinguish levels
west_lifetab |>
    lifeexp(mx = mx,
            sex = sex,
            infant = "CD",
            child = "CD",
            by = level)
#> ℹ Overwriting existing column `ex` in `data`.
#> # A tibble: 50 × 3
#>    level sex       ex
#>    <int> <chr>  <dbl>
#>  1     1 Female  20.0
#>  2     1 Male    18.0
#>  3     2 Female  22.5
#>  4     2 Male    20.4
#>  5     3 Female  25.0
#>  6     3 Male    22.8
#>  7     4 Female  27.5
#>  8     4 Male    25.2
#>  9     5 Female  30.0
#> 10     5 Male    27.6
#> # ℹ 40 more rows

## obtain the same result using
## 'group_by'
west_lifetab |>
  group_by(level) |>
  lifeexp(mx = mx,
          sex = sex,
          infant = "CD",
          child = "CD")
#> ℹ Overwriting existing column `ex` in `data`.
#> # A tibble: 50 × 3
#>    level sex       ex
#>    <int> <chr>  <dbl>
#>  1     1 Female  20.0
#>  2     1 Male    18.0
#>  3     2 Female  22.5
#>  4     2 Male    20.4
#>  5     3 Female  25.0
#>  6     3 Male    22.8
#>  7     4 Female  27.5
#>  8     4 Male    25.2
#>  9     5 Female  30.0
#> 10     5 Male    27.6
#> # ℹ 40 more rows

## calculations based on 'qx'
west_lifetab |>
  lifeexp(qx = qx,
          sex = sex,
          by = level)
#> ℹ Overwriting existing column `ex` in `data`.
#> # A tibble: 50 × 3
#>    level sex       ex
#>    <int> <chr>  <dbl>
#>  1     1 Female  20.1
#>  2     1 Male    18.1
#>  3     2 Female  22.5
#>  4     2 Male    20.5
#>  5     3 Female  25.0
#>  6     3 Male    22.9
#>  7     4 Female  27.5
#>  8     4 Male    25.3
#>  9     5 Female  30.0
#> 10     5 Male    27.7
#> # ℹ 40 more rows
…
