…
## See also

- [`lifeexp()`](https://bayesiandemography.github.io/poputils/reference/lifetab.md)
  Calculate life expectancy from age-specific mortality rates.

## Examples

``` r
irn_fert |>
  tfr(asfr = rate,
      by = c(area, time),
      denominator = 1000)
#> # A tibble: 30 × 3
#>    area   time   tfr
#>    <chr> <dbl> <dbl>
#>  1 Rural  1986  7.08
#>  2 Rural  1987  6.87
#>  3 Rural  1988  6.62
#>  4 Rural  1989  6.55
#>  5 Rural  1990  6.43
#>  6 Rural  1991  6.01
#>  7 Rural  1992  5.29
#>  8 Rural  1993  4.90
#>  9 Rural  1994  4.37
#> 10 Rural  1995  3.82
#> # ℹ 20 more rows
```
