poputils • poputils
…
2.2 Life tables and life expectancy

A life table a way of summarizing mortality conditions. It consists of quantities calculated from age-specific mortality rates. The most widely-used life table quantity is life expectancy at birth.

2.2.1 Basic functionality

Life tables can be calculated from age-specific mortality rates using function lifetab().

nzmort |>
  filter(year == 2022,
         gender == "Female") |>
  lifetab(mx = mx)  
#> # A tibble: 21 × 11
#>     year gender age      deaths   popn      mx      qx     lx    dx     Lx    ex
#>    <int> <chr>  <fct>     <int>  <int>   <dbl>   <dbl>  <dbl> <dbl>  <dbl> <dbl>
#>  1  2022 Female Infant       84  29680 2.83e-3 2.83e-3 1   e5 283.  9.99e4  83.4
#>  2  2022 Female 1-4 yea…     18 118420 1.52e-4 6.08e-4 9.97e4  60.6 3.99e5  82.4
#>  3  2022 Female 5-9 yea…     12 156820 7.65e-5 3.83e-4 9.97e4  38.1 4.98e5  78.4
#>  4  2022 Female 10-14 y…     15 164830 9.10e-5 4.55e-4 9.96e4  45.3 4.98e5  73.4
#>  5  2022 Female 15-19 y…     42 154150 2.72e-4 1.36e-3 9.96e4 136.  4.98e5  68.5
#>  6  2022 Female 20-24 y…     63 156860 4.02e-4 2.01e-3 9.94e4 199.  4.97e5  63.5
#>  7  2022 Female 25-29 y…     72 172770 4.17e-4 2.08e-3 9.92e4 207.  4.96e5  58.5
#>  8  2022 Female 30-34 y…     78 194570 4.01e-4 2.00e-3 9.90e4 198.  4.95e5  53.6
#>  9  2022 Female 35-39 y…    111 175050 6.34e-4 3.17e-3 9.88e4 313.  4.93e5  48.6
#> 10  2022 Female 40-44 y…    147 160070 9.18e-4 4.58e-3 9.85e4 451.  4.91e5  43.7
#> # ℹ 11 more rows
…
The input data for life tables and life expectancies can be probabilities of dying (qx), rather than mortality rates (mx)

west_qx |>
  group_by(level, sex) |>
  lifeexp(qx = qx)
#> # A tibble: 50 × 3
#>    level sex       ex
#>    <int> <chr>  <dbl>
#>  1     1 Female  20.1
#>  2     1 Male    18.1
#>  3     2 Female  22.5
#>  4     2 Male    20.5
#>  5     3 Female  25.0
#>  6     3 Male    22.9
#>  7     4 Female  27.5
#>  8     4 Male    25.3
#>  9     5 Female  30.0
#> 10     5 Male    27.7
#> # ℹ 40 more rows
…
2.2.3 Uncertainty

The examples of life tables and life expectancy so far have all been based on a deterministic input, mx column of data frame nzmort,

nzmort
#> # A tibble: 84 × 6
#>     year gender age         deaths   popn        mx
#>    <int> <chr>  <fct>        <int>  <int>     <dbl>
#>  1  2021 Female Infant         108  29570 0.00365  
#>  2  2021 Female 1-4 years       30 118950 0.000252 
#>  3  2021 Female 5-9 years       12 158350 0.0000758
#>  4  2021 Female 10-14 years     21 163800 0.000128 
#>  5  2021 Female 15-19 years     51 152960 0.000333 
#>  6  2021 Female 20-24 years     54 160250 0.000337 
#>  7  2021 Female 25-29 years     60 180290 0.000333 
#>  8  2021 Female 30-34 years     63 192070 0.000328 
#>  9  2021 Female 35-39 years    105 171970 0.000611 
#> 10  2021 Female 40-44 years    153 157740 0.000970 
#> # ℹ 74 more rows

The data frame nzmort_rvec instead uses a rvec to represent mortality rates,

library(rvec)
nzmort_rvec
#> # A tibble: 84 × 4
#>     year gender age                                 mx
#>    <int> <chr>  <fct>                     <rdbl<1000>>
#>  1  2021 Female Infant         0.0032 (0.0028, 0.0037)
#>  2  2021 Female 1-4 years   0.00018 (0.00014, 0.00022)
#>  3  2021 Female 5-9 years   9.2e-05 (7.3e-05, 0.00012)
#>  4  2021 Female 10-14 years 0.00012 (9.9e-05, 0.00014)
#>  5  2021 Female 15-19 years 0.00027 (0.00023, 0.00031)
#>  6  2021 Female 20-24 years 0.00032 (0.00028, 0.00036)
#>  7  2021 Female 25-29 years 0.00034 (0.00031, 0.00038)
#>  8  2021 Female 30-34 years 0.00042 (0.00038, 0.00046)
#>  9  2021 Female 35-39 years   6e-04 (0.00054, 0.00065)
#> 10  2021 Female 40-44 years 0.00091 (0.00084, 0.00098)
#> # ℹ 74 more rows

The mx rvec holds 1000 draws from the posterior distribution from a Bayesian model of mortality. The posterior distribution for infant mortality for females in 2021, for instance, has a posterior median of 0.0032, and a 95% credible interval of (0.0028, 0.0037).

If the input to lifetab() or lifeexp() is an rvec, then the output will be too. Uncertainty about mortality rates is propagated through to quantities derived from these rates.

library(rvec)
nzmort_rvec |>
  filter(year == 2022,
         gender == "Female") |>
  lifetab(mx = mx) |>
  select(age, qx, lx)
#> # A tibble: 21 × 3
#>    age                                 qx                   lx
#>    <fct>                     <rdbl<1000>>         <rdbl<1000>>
#>  1 Infant         0.0034 (0.0029, 0.0039) 1e+05 (1e+05, 1e+05)
#>  2 1-4 years     0.00075 (6e-04, 0.00095) 99661 (99613, 99708)
#>  3 5-9 years     5e-04 (0.00039, 0.00063) 99587 (99534, 99638)
#>  4 10-14 years 0.00064 (0.00053, 0.00076) 99538 (99479, 99594)
#>  5 15-19 years    0.0014 (0.0012, 0.0016) 99474 (99411, 99532)
#>  6 20-24 years    0.0017 (0.0015, 0.0019) 99332 (99265, 99393)
#>  7 25-29 years    0.0018 (0.0017, 0.0021) 99163 (99093, 99231)
#>  8 30-34 years    0.0023 (0.0021, 0.0025) 98979 (98901, 99053)
#>  9 35-39 years    0.0032 (0.0029, 0.0035) 98753 (98666, 98837)
#> 10 40-44 years    0.0048 (0.0044, 0.0052) 98438 (98339, 98530)
#> # ℹ 11 more rows
…
