…
A life table a way of describing mortality. The best known life table
quantity is life expectancy at birth.

#### 2.2.1 Basic functionality

Life tables can be calculated from age-specific mortality rates using
function
[`lifetab()`](https://bayesiandemography.github.io/poputils/reference/lifetab.md).

``` r
nzl_mort |>
  filter(year == 2022,
         gender == "Female") |>
  lifetab(mx = mx)  
#> # A tibble: 21 × 10
#>     year gender age         deaths   popn       qx      lx    dx      Lx    ex
#>    <int> <chr>  <fct>        <int>  <int>    <dbl>   <dbl> <dbl>   <dbl> <dbl>
#>  1  2022 Female Infant          84  29680 0.00283  100000  283.   99859.  83.4
#>  2  2022 Female 1-4 years       18 118420 0.000608  99717.  60.6 398748.  82.6
#>  3  2022 Female 5-9 years       12 156820 0.000383  99657.  38.1 498189.  78.7
#>  4  2022 Female 10-14 years     15 164830 0.000455  99619.  45.3 497980.  73.7
#>  5  2022 Female 15-19 years     42 154150 0.00136   99573. 136.  497528.  68.8
#>  6  2022 Female 20-24 years     63 156860 0.00201   99438. 199.  496690.  63.8
#>  7  2022 Female 25-29 years     72 172770 0.00208   99238. 207.  495675.  59.0
#>  8  2022 Female 30-34 years     78 194570 0.00200   99032. 198.  494663.  54.1
#>  9  2022 Female 35-39 years    111 175050 0.00317   98833. 313.  493385.  49.2
#> 10  2022 Female 40-44 years    147 160070 0.00458   98521. 451.  491474.  44.3
#> # ℹ 11 more rows
```
…
The input data for life tables and life expectancies can be
probabilities of dying (`qx`), rather than mortality rates (`mx`)

``` r
west_lifetab |>
  group_by(level, sex) |>
  lifeexp(qx = qx)
#> ℹ Overwriting existing column `ex` in `data`.
#> # A tibble: 50 × 3
#>    level sex       ex
#>    <int> <chr>  <dbl>
#>  1     1 Female  20.1
#>  2     1 Male    18.1
#>  3     2 Female  22.5
#>  4     2 Male    20.5
#>  5     3 Female  25.0
#>  6     3 Male    22.9
#>  7     4 Female  27.5
#>  8     4 Male    25.3
#>  9     5 Female  30.0
#> 10     5 Male    27.7
#> # ℹ 40 more rows
```
…
``` r
target_e0 <- data.frame(sex = "Female", e0 = 51.4)

west10 <- west_lifetab |>
  filter(level == 10) |>
  select(age, sex, lx)

e0_to_lifetab_logit(target = target_e0,
                    standard = west10)
#> # A tibble: 21 × 7
#>    sex    age       qx      lx     dx      Lx    ex
#>    <chr>  <fct>  <dbl>   <dbl>  <dbl>   <dbl> <dbl>
#>  1 Female 0     0.102  100000  10189.  94814.  51.4
#>  2 Female 1-4   0.0693  89811.  6223. 346647.  56.2
#>  3 Female 5-9   0.0202  83587.  1688. 413704.  56.2
#>  4 Female 10-14 0.0159  81900.  1301. 406237.  52.3
#>  5 Female 15-19 0.0214  80599.  1722. 398673.  48.1
#>  6 Female 20-24 0.0273  78877.  2155. 388973.  44.1
#>  7 Female 25-29 0.0312  76722.  2394. 377595.  40.3
#>  8 Female 30-34 0.0358  74329.  2664. 364942.  36.5
#>  9 Female 35-39 0.0404  71664.  2894. 351036.  32.8
#> 10 Female 40-44 0.0450  68770.  3097. 336049.  29.0
#> # ℹ 11 more rows
```

### 2.3 Fertility

Function
[`tfr()`](https://bayesiandemography.github.io/poputils/reference/tfr.md)
calculates total fertility rates from age-specific fertility rates. The
interface is similar to that of
[`lifeexp()`](https://bayesiandemography.github.io/poputils/reference/lifetab.md),

``` r
irn_fert |>
  tfr(asfr = rate,
      by = c(area, time),
      denominator = 1000)      
#> # A tibble: 30 × 3
#>    area   time   tfr
#>    <chr> <dbl> <dbl>
#>  1 Rural  1986  7.08
#>  2 Rural  1987  6.87
#>  3 Rural  1988  6.62
#>  4 Rural  1989  6.55
#>  5 Rural  1990  6.43
#>  6 Rural  1991  6.01
#>  7 Rural  1992  5.29
#>  8 Rural  1993  4.90
#>  9 Rural  1994  4.37
#> 10 Rural  1995  3.82
#> # ℹ 20 more rows
```
…
The examples so far have all used deterministic inputs. The data frame
`nzl_mort_rvec`, in constrast, uses a rvec to represent mortality rates,

``` r
library(rvec)
#> 
#> Attaching package: 'rvec'
#> The following objects are masked from 'package:stats':
#> 
#>     sd, var
#> The following object is masked from 'package:base':
#> 
#>     rank
nzl_mort_rvec
#> # A tibble: 84 × 4
#>     year gender age                                 mx
#>    <int> <chr>  <fct>                     <rdbl<1000>>
#>  1  2021 Female Infant         0.0033 (0.0029, 0.0038)
#>  2  2021 Female 1-4 years   0.00017 (0.00014, 0.00021)
#>  3  2021 Female 5-9 years   9.3e-05 (7.9e-05, 0.00011)
#>  4  2021 Female 10-14 years 0.00011 (9.5e-05, 0.00013)
#>  5  2021 Female 15-19 years 0.00025 (0.00022, 0.00028)
#>  6  2021 Female 20-24 years   3e-04 (0.00027, 0.00034)
#>  7  2021 Female 25-29 years   0.00033 (3e-04, 0.00037)
#>  8  2021 Female 30-34 years 0.00043 (0.00038, 0.00047)
#>  9  2021 Female 35-39 years 0.00061 (0.00056, 0.00067)
#> 10  2021 Female 40-44 years   0.00094 (0.00087, 0.001)
#> # ℹ 74 more rows
```
…
``` r
library(rvec)
nzl_mort_rvec |>
  filter(year == 2022,
         gender == "Female") |>
  lifetab(mx = mx) |>
  select(age, qx, lx)
#> # A tibble: 21 × 3
#>    age                                 qx                   lx
#>    <fct>                     <rdbl<1000>>         <rdbl<1000>>
#>  1 Infant           0.0035 (0.003, 0.004) 1e+05 (1e+05, 1e+05)
#>  2 1-4 years   0.00073 (0.00061, 0.00089) 99651 (99605, 99698)
#>  3 5-9 years     5e-04 (0.00042, 0.00059) 99578 (99524, 99630)
#>  4 10-14 years 0.00059 (0.00051, 0.00068) 99528 (99469, 99585)
#>  5 15-19 years    0.0013 (0.0012, 0.0015) 99470 (99407, 99529)
#>  6 20-24 years    0.0016 (0.0014, 0.0018) 99339 (99272, 99401)
#>  7 25-29 years     0.0018 (0.0016, 0.002) 99176 (99103, 99248)
#>  8 30-34 years    0.0023 (0.0021, 0.0025) 98997 (98915, 99076)
#>  9 35-39 years     0.0033 (0.003, 0.0035) 98771 (98687, 98861)
#> 10 40-44 years    0.0049 (0.0046, 0.0053) 98447 (98354, 98548)
#> # ℹ 11 more rows
```
…
